[
    {
        "path": "/api/40/systemSettings/helpPageLink",
        "featureName": "User roles can be listed",
        "static": false,
        "count": 2,
        "nonDeterministic": false,
        "method": "GET",
        "requestBody": "",
        "requestHeaders": {
            "host": "localhost:8080",
            "proxy-connection": "keep-alive",
            "accept": "application/json",
            "origin": "http://localhost:3000",
            "sec-fetch-site": "same-site",
            "sec-fetch-mode": "cors"
        },
        "statusCode": 200,
        "responseBody": "{\"helpPageLink\":\"https://dhis2.github.io/dhis2-docs/master/en/user/html/dhis2_user_manual_en.html\"}",
        "responseSize": 99,
        "responseHeaders": {
            "server": "nginx/1.23.3",
            "content-type": "application/json;charset=UTF-8",
            "transfer-encoding": "chunked",
            "connection": "keep-alive",
            "access-control-allow-credentials": "true",
            "access-control-allow-origin": "http://localhost:3000",
            "vary": "Origin",
            "access-control-expose-headers": "ETag, Location",
            "cache-control": "no-cache, private",
            "x-content-type-options": "nosniff",
            "x-xss-protection": "1; mode=block"
        }
    },
    {
        "path": "/api/40/organisationUnits?paging=false&level=1&fields=id%2Cpath%2CdisplayName%2Cchildren%3A%3AisNotEmpty",
        "featureName": "User roles can be listed",
        "static": false,
        "count": 2,
        "nonDeterministic": false,
        "method": "GET",
        "requestBody": "",
        "requestHeaders": {
            "host": "localhost:8080",
            "proxy-connection": "keep-alive",
            "accept": "application/json",
            "origin": "http://localhost:3000",
            "sec-fetch-site": "same-site",
            "sec-fetch-mode": "cors"
        },
        "statusCode": 200,
        "responseBody": "{\"organisationUnits\":[{\"children\":true,\"path\":\"/ImspTQPwCqd\",\"displayName\":\"Sierra Leone\",\"id\":\"ImspTQPwCqd\"}]}",
        "responseSize": 111,
        "responseHeaders": {
            "server": "nginx/1.23.3",
            "content-type": "application/json;charset=UTF-8",
            "transfer-encoding": "chunked",
            "connection": "keep-alive",
            "access-control-allow-credentials": "true",
            "access-control-allow-origin": "http://localhost:3000",
            "vary": "Origin",
            "access-control-expose-headers": "ETag, Location",
            "cache-control": "no-cache, private",
            "x-content-type-options": "nosniff",
            "x-xss-protection": "1; mode=block"
        }
    },
    {
        "path": "/api/40/userRoles?fields=id,displayName,access,user%5Bid%2CdisplayName%5D,publicAccess,userGroupAccesses,description&order=name%3Aasc&page=1&pageSize=50",
        "featureName": "User roles can be listed",
        "static": false,
        "count": 1,
        "nonDeterministic": false,
        "method": "GET",
        "requestBody": "",
        "requestHeaders": {
            "host": "localhost:8080",
            "proxy-connection": "keep-alive",
            "accept": "application/json",
            "origin": "http://localhost:3000",
            "sec-fetch-site": "same-site",
            "sec-fetch-mode": "cors"
        },
        "statusCode": 200,
        "responseBody": "{\"pager\":{\"page\":1,\"total\":14,\"pageSize\":50,\"pageCount\":1},\"userRoles\":[{\"publicAccess\":\"rw------\",\"userGroupAccesses\":[],\"access\":{\"manage\":true,\"externalize\":false,\"write\":true,\"read\":true,\"update\":true,\"delete\":true},\"description\":\"Access to the antenatal care program\",\"displayName\":\"Antenatal care program\",\"user\":{\"id\":\"xE7jOejl9FI\",\"code\":null,\"name\":\"John Traore\",\"displayName\":\"John Traore\",\"username\":\"admin\"},\"id\":\"UYXOT4A7JMI\"},{\"publicAccess\":\"rw------\",\"userGroupAccesses\":[],\"access\":{\"manage\":true,\"externalize\":false,\"write\":true,\"read\":true,\"update\":true,\"delete\":true},\"description\":\"Child Health Program Manager\",\"displayName\":\"Child Health Program Manager\",\"user\":{\"id\":\"GOLswS44mh8\",\"code\":null,\"name\":\"Tom Wakiki\",\"displayName\":\"Tom Wakiki\",\"username\":\"system\"},\"id\":\"Ql6Gew7eaX6\"},{\"publicAccess\":\"rw------\",\"userGroupAccesses\":[],\"access\":{\"manage\":true,\"externalize\":false,\"write\":true,\"read\":true,\"update\":true,\"delete\":true},\"description\":\"Access to the child health program in tracker\",\"displayName\":\"Child Health Tracker\",\"user\":{\"id\":\"GOLswS44mh8\",\"code\":null,\"name\":\"Tom Wakiki\",\"displayName\":\"Tom Wakiki\",\"username\":\"system\"},\"id\":\"TMK9CMZ2V98\"},{\"publicAccess\":\"rw------\",\"userGroupAccesses\":[],\"access\":{\"manage\":true,\"externalize\":false,\"write\":true,\"read\":true,\"update\":true,\"delete\":true},\"description\":\"Data entry clerk\",\"displayName\":\"Data entry clerk\",\"user\":{\"id\":\"xE7jOejl9FI\",\"code\":null,\"name\":\"John Traore\",\"displayName\":\"John Traore\",\"username\":\"admin\"},\"id\":\"Euq3XfEIEbx\"},{\"publicAccess\":\"rw------\",\"userGroupAccesses\":[],\"access\":{\"manage\":true,\"externalize\":false,\"write\":true,\"read\":true,\"update\":true,\"delete\":true},\"description\":\"Tracker user at the facility\",\"displayName\":\"Facility tracker\",\"user\":{\"id\":\"GOLswS44mh8\",\"code\":null,\"name\":\"Tom Wakiki\",\"displayName\":\"Tom Wakiki\",\"username\":\"system\"},\"id\":\"txB7vu1w2Pr\"},{\"publicAccess\":\"rw------\",\"userGroupAccesses\":[],\"access\":{\"manage\":true,\"externalize\":false,\"write\":true,\"read\":true,\"update\":true,\"delete\":true},\"description\":\"Read-only\",\"displayName\":\"Guest\",\"user\":{\"id\":\"xE7jOejl9FI\",\"code\":null,\"name\":\"John Traore\",\"displayName\":\"John Traore\",\"username\":\"admin\"},\"id\":\"XS0dNzuZmfH\"},{\"publicAccess\":\"rw------\",\"userGroupAccesses\":[],\"access\":{\"manage\":true,\"externalize\":false,\"write\":true,\"read\":true,\"update\":true,\"delete\":true},\"description\":\"Access to the inpatient program in tracker\",\"displayName\":\"Inpatient program\",\"user\":{\"id\":\"GOLswS44mh8\",\"code\":null,\"name\":\"Tom Wakiki\",\"displayName\":\"Tom Wakiki\",\"username\":\"system\"},\"id\":\"DRdaVRtwmG5\"},{\"publicAccess\":\"rw------\",\"userGroupAccesses\":[],\"access\":{\"manage\":true,\"externalize\":false,\"write\":true,\"read\":true,\"update\":true,\"delete\":true},\"description\":\"M and E Officer\",\"displayName\":\"M and E Officer\",\"user\":{\"id\":\"xE7jOejl9FI\",\"code\":null,\"name\":\"John Traore\",\"displayName\":\"John Traore\",\"username\":\"admin\"},\"id\":\"jRWSNIHdKww\"},{\"publicAccess\":\"rw------\",\"userGroupAccesses\":[],\"access\":{\"manage\":true,\"externalize\":false,\"write\":true,\"read\":true,\"update\":true,\"delete\":true},\"description\":\"Access to the MNCH program in tracker\",\"displayName\":\"MNCH / PNC (Adult Woman) program\",\"user\":{\"id\":\"xE7jOejl9FI\",\"code\":null,\"name\":\"John Traore\",\"displayName\":\"John Traore\",\"username\":\"admin\"},\"id\":\"aNk5AyC7ydy\"},{\"publicAccess\":\"rw------\",\"userGroupAccesses\":[],\"access\":{\"manage\":true,\"externalize\":false,\"write\":true,\"read\":true,\"update\":true,\"delete\":true},\"description\":\"Superuser\",\"displayName\":\"Superuser\",\"user\":{\"id\":\"GOLswS44mh8\",\"code\":null,\"name\":\"Tom Wakiki\",\"displayName\":\"Tom Wakiki\",\"username\":\"system\"},\"id\":\"Ufph3mGRmMo\"},{\"publicAccess\":\"rw------\",\"userGroupAccesses\":[],\"access\":{\"manage\":true,\"externalize\":false,\"write\":true,\"read\":true,\"update\":true,\"delete\":true},\"description\":\"System administrator\",\"displayName\":\"System administrator (ALL)\",\"user\":{\"id\":\"GOLswS44mh8\",\"code\":null,\"name\":\"Tom Wakiki\",\"displayName\":\"Tom Wakiki\",\"username\":\"system\"},\"id\":\"LGWLyWNro4x\"},{\"publicAccess\":\"rw------\",\"userGroupAccesses\":[],\"access\":{\"manage\":true,\"externalize\":false,\"write\":true,\"read\":true,\"update\":true,\"delete\":true},\"description\":\"Access to the TB program in Tracker\",\"displayName\":\"TB program\",\"user\":{\"id\":\"GOLswS44mh8\",\"code\":null,\"name\":\"Tom Wakiki\",\"displayName\":\"Tom Wakiki\",\"username\":\"system\"},\"id\":\"cUlTcejWree\"},{\"publicAccess\":\"rw------\",\"userGroupAccesses\":[],\"access\":{\"manage\":true,\"externalize\":false,\"write\":true,\"read\":true,\"update\":true,\"delete\":true},\"description\":\"User manager\",\"displayName\":\"User manager\",\"user\":{\"id\":\"GOLswS44mh8\",\"code\":null,\"name\":\"Tom Wakiki\",\"displayName\":\"Tom Wakiki\",\"username\":\"system\"},\"id\":\"xJZBzAHI88H\"},{\"publicAccess\":\"rw------\",\"userGroupAccesses\":[],\"access\":{\"manage\":true,\"externalize\":false,\"write\":true,\"read\":true,\"update\":true,\"delete\":true},\"description\":\"WHO MCH program\",\"displayName\":\"WHO MCH program\",\"user\":{\"id\":\"xE7jOejl9FI\",\"code\":null,\"name\":\"John Traore\",\"displayName\":\"John Traore\",\"username\":\"admin\"},\"id\":\"Pqoy4DLOdMK\"}]}",
        "responseSize": 4995,
        "responseHeaders": {
            "server": "nginx/1.23.3",
            "content-type": "application/json;charset=UTF-8",
            "transfer-encoding": "chunked",
            "connection": "keep-alive",
            "access-control-allow-credentials": "true",
            "access-control-allow-origin": "http://localhost:3000",
            "vary": "Origin",
            "access-control-expose-headers": "ETag, Location",
            "cache-control": "no-cache, private",
            "x-content-type-options": "nosniff",
            "x-xss-protection": "1; mode=block"
        }
    },
    {
        "path": "/api/40/userRoles?fields=id,displayName,access,user%5Bid%2CdisplayName%5D,publicAccess,userGroupAccesses,description&order=name%3Aasc&page=1&pageSize=5",
        "featureName": "User roles can be listed",
        "static": false,
        "count": 1,
        "nonDeterministic": false,
        "method": "GET",
        "requestBody": "",
        "requestHeaders": {
            "host": "localhost:8080",
            "proxy-connection": "keep-alive",
            "accept": "application/json",
            "origin": "http://localhost:3000",
            "sec-fetch-site": "same-site",
            "sec-fetch-mode": "cors"
        },
        "statusCode": 200,
        "responseBody": "{\"pager\":{\"page\":1,\"total\":14,\"pageSize\":5,\"nextPage\":\"/40/userRoles?page=2&pageSize=5&fields=id%2CdisplayName%2Caccess%2Cuser%5Bid%2CdisplayName%5D%2CpublicAccess%2CuserGroupAccesses%2Cdescription&order=name%3Aasc\",\"pageCount\":3},\"userRoles\":[{\"publicAccess\":\"rw------\",\"userGroupAccesses\":[],\"access\":{\"manage\":true,\"externalize\":false,\"write\":true,\"read\":true,\"update\":true,\"delete\":true},\"description\":\"Access to the antenatal care program\",\"displayName\":\"Antenatal care program\",\"user\":{\"id\":\"xE7jOejl9FI\",\"code\":null,\"name\":\"John Traore\",\"displayName\":\"John Traore\",\"username\":\"admin\"},\"id\":\"UYXOT4A7JMI\"},{\"publicAccess\":\"rw------\",\"userGroupAccesses\":[],\"access\":{\"manage\":true,\"externalize\":false,\"write\":true,\"read\":true,\"update\":true,\"delete\":true},\"description\":\"Child Health Program Manager\",\"displayName\":\"Child Health Program Manager\",\"user\":{\"id\":\"GOLswS44mh8\",\"code\":null,\"name\":\"Tom Wakiki\",\"displayName\":\"Tom Wakiki\",\"username\":\"system\"},\"id\":\"Ql6Gew7eaX6\"},{\"publicAccess\":\"rw------\",\"userGroupAccesses\":[],\"access\":{\"manage\":true,\"externalize\":false,\"write\":true,\"read\":true,\"update\":true,\"delete\":true},\"description\":\"Access to the child health program in tracker\",\"displayName\":\"Child Health Tracker\",\"user\":{\"id\":\"GOLswS44mh8\",\"code\":null,\"name\":\"Tom Wakiki\",\"displayName\":\"Tom Wakiki\",\"username\":\"system\"},\"id\":\"TMK9CMZ2V98\"},{\"publicAccess\":\"rw------\",\"userGroupAccesses\":[],\"access\":{\"manage\":true,\"externalize\":false,\"write\":true,\"read\":true,\"update\":true,\"delete\":true},\"description\":\"Data entry clerk\",\"displayName\":\"Data entry clerk\",\"user\":{\"id\":\"xE7jOejl9FI\",\"code\":null,\"name\":\"John Traore\",\"displayName\":\"John Traore\",\"username\":\"admin\"},\"id\":\"Euq3XfEIEbx\"},{\"publicAccess\":\"rw------\",\"userGroupAccesses\":[],\"access\":{\"manage\":true,\"externalize\":false,\"write\":true,\"read\":true,\"update\":true,\"delete\":true},\"description\":\"Tracker user at the facility\",\"displayName\":\"Facility tracker\",\"user\":{\"id\":\"GOLswS44mh8\",\"code\":null,\"name\":\"Tom Wakiki\",\"displayName\":\"Tom Wakiki\",\"username\":\"system\"},\"id\":\"txB7vu1w2Pr\"}]}",
        "responseSize": 2072,
        "responseHeaders": {
            "server": "nginx/1.23.3",
            "content-type": "application/json;charset=UTF-8",
            "transfer-encoding": "chunked",
            "connection": "keep-alive",
            "access-control-allow-credentials": "true",
            "access-control-allow-origin": "http://localhost:3000",
            "vary": "Origin",
            "access-control-expose-headers": "ETag, Location",
            "cache-control": "no-cache, private",
            "x-content-type-options": "nosniff",
            "x-xss-protection": "1; mode=block"
        }
    },
    {
        "path": "/api/40/userRoles?fields=id,displayName,access,user%5Bid%2CdisplayName%5D,publicAccess,userGroupAccesses,description&order=name%3Aasc&page=2&pageSize=5",
        "featureName": "User roles can be listed",
        "static": false,
        "count": 1,
        "nonDeterministic": false,
        "method": "GET",
        "requestBody": "",
        "requestHeaders": {
            "host": "localhost:8080",
            "proxy-connection": "keep-alive",
            "accept": "application/json",
            "origin": "http://localhost:3000",
            "sec-fetch-site": "same-site",
            "sec-fetch-mode": "cors"
        },
        "statusCode": 200,
        "responseBody": "{\"pager\":{\"page\":2,\"total\":14,\"pageSize\":5,\"nextPage\":\"/40/userRoles?page=3&pageSize=5&fields=id%2CdisplayName%2Caccess%2Cuser%5Bid%2CdisplayName%5D%2CpublicAccess%2CuserGroupAccesses%2Cdescription&order=name%3Aasc\",\"prevPage\":\"/40/userRoles?pageSize=5&fields=id%2CdisplayName%2Caccess%2Cuser%5Bid%2CdisplayName%5D%2CpublicAccess%2CuserGroupAccesses%2Cdescription&order=name%3Aasc\",\"pageCount\":3},\"userRoles\":[{\"publicAccess\":\"rw------\",\"userGroupAccesses\":[],\"access\":{\"manage\":true,\"externalize\":false,\"write\":true,\"read\":true,\"update\":true,\"delete\":true},\"description\":\"Read-only\",\"displayName\":\"Guest\",\"user\":{\"id\":\"xE7jOejl9FI\",\"code\":null,\"name\":\"John Traore\",\"displayName\":\"John Traore\",\"username\":\"admin\"},\"id\":\"XS0dNzuZmfH\"},{\"publicAccess\":\"rw------\",\"userGroupAccesses\":[],\"access\":{\"manage\":true,\"externalize\":false,\"write\":true,\"read\":true,\"update\":true,\"delete\":true},\"description\":\"Access to the inpatient program in tracker\",\"displayName\":\"Inpatient program\",\"user\":{\"id\":\"GOLswS44mh8\",\"code\":null,\"name\":\"Tom Wakiki\",\"displayName\":\"Tom Wakiki\",\"username\":\"system\"},\"id\":\"DRdaVRtwmG5\"},{\"publicAccess\":\"rw------\",\"userGroupAccesses\":[],\"access\":{\"manage\":true,\"externalize\":false,\"write\":true,\"read\":true,\"update\":true,\"delete\":true},\"description\":\"M and E Officer\",\"displayName\":\"M and E Officer\",\"user\":{\"id\":\"xE7jOejl9FI\",\"code\":null,\"name\":\"John Traore\",\"displayName\":\"John Traore\",\"username\":\"admin\"},\"id\":\"jRWSNIHdKww\"},{\"publicAccess\":\"rw------\",\"userGroupAccesses\":[],\"access\":{\"manage\":true,\"externalize\":false,\"write\":true,\"read\":true,\"update\":true,\"delete\":true},\"description\":\"Access to the MNCH program in tracker\",\"displayName\":\"MNCH / PNC (Adult Woman) program\",\"user\":{\"id\":\"xE7jOejl9FI\",\"code\":null,\"name\":\"John Traore\",\"displayName\":\"John Traore\",\"username\":\"admin\"},\"id\":\"aNk5AyC7ydy\"},{\"publicAccess\":\"rw------\",\"userGroupAccesses\":[],\"access\":{\"manage\":true,\"externalize\":false,\"write\":true,\"read\":true,\"update\":true,\"delete\":true},\"description\":\"Superuser\",\"displayName\":\"Superuser\",\"user\":{\"id\":\"GOLswS44mh8\",\"code\":null,\"name\":\"Tom Wakiki\",\"displayName\":\"Tom Wakiki\",\"username\":\"system\"},\"id\":\"Ufph3mGRmMo\"}]}",
        "responseSize": 2199,
        "responseHeaders": {
            "server": "nginx/1.23.3",
            "content-type": "application/json;charset=UTF-8",
            "transfer-encoding": "chunked",
            "connection": "keep-alive",
            "access-control-allow-credentials": "true",
            "access-control-allow-origin": "http://localhost:3000",
            "vary": "Origin",
            "access-control-expose-headers": "ETag, Location",
            "cache-control": "no-cache, private",
            "x-content-type-options": "nosniff",
            "x-xss-protection": "1; mode=block"
        }
    }
]