[
    {
        "path": "/api/40/systemSettings/helpPageLink",
        "featureName": "User groups can be listed",
        "static": false,
        "count": 2,
        "nonDeterministic": false,
        "method": "GET",
        "requestBody": "",
        "requestHeaders": {
            "host": "localhost:8080",
            "proxy-connection": "keep-alive",
            "accept": "application/json",
            "origin": "http://localhost:3000",
            "sec-fetch-site": "same-site",
            "sec-fetch-mode": "cors"
        },
        "statusCode": 200,
        "responseBody": "{\"helpPageLink\":\"https://dhis2.github.io/dhis2-docs/master/en/user/html/dhis2_user_manual_en.html\"}",
        "responseSize": 99,
        "responseHeaders": {
            "server": "nginx/1.23.3",
            "content-type": "application/json;charset=UTF-8",
            "transfer-encoding": "chunked",
            "connection": "keep-alive",
            "access-control-allow-credentials": "true",
            "access-control-allow-origin": "http://localhost:3000",
            "vary": "Origin",
            "access-control-expose-headers": "ETag, Location",
            "cache-control": "no-cache, private",
            "x-content-type-options": "nosniff",
            "x-xss-protection": "1; mode=block"
        }
    },
    {
        "path": "/api/40/organisationUnits?paging=false&level=1&fields=id%2Cpath%2CdisplayName%2Cchildren%3A%3AisNotEmpty",
        "featureName": "User groups can be listed",
        "static": false,
        "count": 2,
        "nonDeterministic": false,
        "method": "GET",
        "requestBody": "",
        "requestHeaders": {
            "host": "localhost:8080",
            "proxy-connection": "keep-alive",
            "accept": "application/json",
            "origin": "http://localhost:3000",
            "sec-fetch-site": "same-site",
            "sec-fetch-mode": "cors"
        },
        "statusCode": 200,
        "responseBody": "{\"organisationUnits\":[{\"children\":true,\"path\":\"/ImspTQPwCqd\",\"displayName\":\"Sierra Leone\",\"id\":\"ImspTQPwCqd\"}]}",
        "responseSize": 111,
        "responseHeaders": {
            "server": "nginx/1.23.3",
            "content-type": "application/json;charset=UTF-8",
            "transfer-encoding": "chunked",
            "connection": "keep-alive",
            "access-control-allow-credentials": "true",
            "access-control-allow-origin": "http://localhost:3000",
            "vary": "Origin",
            "access-control-expose-headers": "ETag, Location",
            "cache-control": "no-cache, private",
            "x-content-type-options": "nosniff",
            "x-xss-protection": "1; mode=block"
        }
    },
    {
        "path": "/api/40/userGroups?fields=id,displayName,access,user%5Bid%2CdisplayName%5D,publicAccess,userGroupAccesses&order=name%3Aasc&page=1&pageSize=50",
        "featureName": "User groups can be listed",
        "static": false,
        "count": 1,
        "nonDeterministic": false,
        "method": "GET",
        "requestBody": "",
        "requestHeaders": {
            "host": "localhost:8080",
            "proxy-connection": "keep-alive",
            "accept": "application/json",
            "origin": "http://localhost:3000",
            "sec-fetch-site": "same-site",
            "sec-fetch-mode": "cors"
        },
        "statusCode": 200,
        "responseBody": "{\"pager\":{\"page\":1,\"total\":31,\"pageSize\":50,\"pageCount\":1},\"userGroups\":[{\"publicAccess\":\"rw------\",\"userGroupAccesses\":[],\"access\":{\"manage\":true,\"externalize\":false,\"write\":true,\"read\":true,\"update\":true,\"delete\":true},\"displayName\":\"Administrators\",\"user\":{\"id\":\"GOLswS44mh8\",\"code\":null,\"name\":\"Tom Wakiki\",\"displayName\":\"Tom Wakiki\",\"username\":\"system\"},\"id\":\"wl5cDMuUhmF\"},{\"publicAccess\":\"rw------\",\"userGroupAccesses\":[],\"access\":{\"manage\":true,\"externalize\":false,\"write\":true,\"read\":true,\"update\":true,\"delete\":true},\"displayName\":\"Africare HQ\",\"user\":{\"id\":\"GOLswS44mh8\",\"code\":null,\"name\":\"Tom Wakiki\",\"displayName\":\"Tom Wakiki\",\"username\":\"system\"},\"id\":\"vAvEltyXGbD\"},{\"publicAccess\":\"r-------\",\"userGroupAccesses\":[],\"access\":{\"manage\":false,\"externalize\":false,\"write\":false,\"read\":true,\"update\":false,\"delete\":false},\"displayName\":\"Bo District M&E officers\",\"user\":{\"id\":\"GOLswS44mh8\",\"code\":null,\"name\":\"Tom Wakiki\",\"displayName\":\"Tom Wakiki\",\"username\":\"system\"},\"id\":\"ZoHNWQajIoe\"},{\"publicAccess\":\"r-------\",\"userGroupAccesses\":[],\"access\":{\"manage\":false,\"externalize\":false,\"write\":false,\"read\":true,\"update\":false,\"delete\":false},\"displayName\":\"Bonthe District M&E Officers\",\"user\":{\"id\":\"GOLswS44mh8\",\"code\":null,\"name\":\"Tom Wakiki\",\"displayName\":\"Tom Wakiki\",\"username\":\"system\"},\"id\":\"th4S6ovwcr8\"},{\"publicAccess\":\"r-------\",\"userGroupAccesses\":[],\"access\":{\"manage\":false,\"externalize\":false,\"write\":false,\"read\":true,\"update\":false,\"delete\":false},\"displayName\":\"Cape Town University Research Group\",\"user\":{\"id\":\"GOLswS44mh8\",\"code\":null,\"name\":\"Tom Wakiki\",\"displayName\":\"Tom Wakiki\",\"username\":\"system\"},\"id\":\"wAAA1agEHin\"},{\"publicAccess\":\"rw------\",\"userGroupAccesses\":[],\"access\":{\"manage\":true,\"externalize\":false,\"write\":true,\"read\":true,\"update\":true,\"delete\":true},\"displayName\":\"_DATASET_Child Health Program Manager\",\"user\":{\"id\":\"GOLswS44mh8\",\"code\":null,\"name\":\"Tom Wakiki\",\"displayName\":\"Tom Wakiki\",\"username\":\"system\"},\"id\":\"GogLpGmkL0g\"},{\"publicAccess\":\"rw------\",\"userGroupAccesses\":[],\"access\":{\"manage\":true,\"externalize\":false,\"write\":true,\"read\":true,\"update\":true,\"delete\":true},\"displayName\":\"_DATASET_Data entry clerk\",\"user\":{\"id\":\"xE7jOejl9FI\",\"code\":null,\"name\":\"John Traore\",\"displayName\":\"John Traore\",\"username\":\"admin\"},\"id\":\"tH0GcNZZ1vW\"},{\"publicAccess\":\"rw------\",\"userGroupAccesses\":[],\"access\":{\"manage\":true,\"externalize\":false,\"write\":true,\"read\":true,\"update\":true,\"delete\":true},\"displayName\":\"_DATASET_M and E Officer\",\"user\":{\"id\":\"GOLswS44mh8\",\"code\":null,\"name\":\"Tom Wakiki\",\"displayName\":\"Tom Wakiki\",\"username\":\"system\"},\"id\":\"w900PX10L7O\"},{\"publicAccess\":\"rw------\",\"userGroupAccesses\":[],\"access\":{\"manage\":true,\"externalize\":false,\"write\":true,\"read\":true,\"update\":true,\"delete\":true},\"displayName\":\"_DATASET_Superuser\",\"user\":{\"id\":\"GOLswS44mh8\",\"code\":null,\"name\":\"Tom Wakiki\",\"displayName\":\"Tom Wakiki\",\"username\":\"system\"},\"id\":\"B6JNeAQ6akX\"},{\"publicAccess\":\"rw------\",\"userGroupAccesses\":[],\"access\":{\"manage\":true,\"externalize\":false,\"write\":true,\"read\":true,\"update\":true,\"delete\":true},\"displayName\":\"_DATASET_System administrator (ALL)\",\"user\":{\"id\":\"GOLswS44mh8\",\"code\":null,\"name\":\"Tom Wakiki\",\"displayName\":\"Tom Wakiki\",\"username\":\"system\"},\"id\":\"zz6XckBrLlj\"},{\"publicAccess\":\"rw------\",\"userGroupAccesses\":[],\"access\":{\"manage\":true,\"externalize\":false,\"write\":true,\"read\":true,\"update\":true,\"delete\":true},\"displayName\":\"EPI Stock Completeness Notification Recipients\",\"user\":{\"id\":\"xE7jOejl9FI\",\"code\":null,\"name\":\"John Traore\",\"displayName\":\"John Traore\",\"username\":\"admin\"},\"id\":\"qlEhuAA77gc\"},{\"publicAccess\":\"r-------\",\"userGroupAccesses\":[],\"access\":{\"manage\":false,\"externalize\":false,\"write\":false,\"read\":true,\"update\":false,\"delete\":false},\"displayName\":\"Family Health Partner\",\"user\":{\"id\":\"GOLswS44mh8\",\"code\":null,\"name\":\"Tom Wakiki\",\"displayName\":\"Tom Wakiki\",\"username\":\"system\"},\"id\":\"ZrsVF7IJ93y\"},{\"publicAccess\":\"r-------\",\"userGroupAccesses\":[],\"access\":{\"manage\":false,\"externalize\":false,\"write\":false,\"read\":true,\"update\":false,\"delete\":false},\"displayName\":\"Family Planning Program Coordinators\",\"user\":{\"id\":\"GOLswS44mh8\",\"code\":null,\"name\":\"Tom Wakiki\",\"displayName\":\"Tom Wakiki\",\"username\":\"system\"},\"id\":\"sZRhXMPbcWc\"},{\"publicAccess\":\"rw------\",\"userGroupAccesses\":[],\"access\":{\"manage\":true,\"externalize\":false,\"write\":true,\"read\":true,\"update\":true,\"delete\":true},\"displayName\":\"Feedback Message Recipients\",\"user\":{\"id\":\"xE7jOejl9FI\",\"code\":null,\"name\":\"John Traore\",\"displayName\":\"John Traore\",\"username\":\"admin\"},\"id\":\"QYrzIjSfI8z\"},{\"publicAccess\":\"r-------\",\"userGroupAccesses\":[],\"access\":{\"manage\":false,\"externalize\":false,\"write\":false,\"read\":true,\"update\":false,\"delete\":false},\"displayName\":\"HIV Program Coordinators\",\"user\":{\"id\":\"GOLswS44mh8\",\"code\":null,\"name\":\"Tom Wakiki\",\"displayName\":\"Tom Wakiki\",\"username\":\"system\"},\"id\":\"Rg8wusV7QYi\"},{\"publicAccess\":\"rw------\",\"userGroupAccesses\":[],\"access\":{\"manage\":true,\"externalize\":false,\"write\":true,\"read\":true,\"update\":true,\"delete\":true},\"displayName\":\"Kenya staff\",\"user\":{\"id\":\"GOLswS44mh8\",\"code\":null,\"name\":\"Tom Wakiki\",\"displayName\":\"Tom Wakiki\",\"username\":\"system\"},\"id\":\"YCPJDwzbe8T\"},{\"publicAccess\":\"rw------\",\"userGroupAccesses\":[],\"access\":{\"manage\":true,\"externalize\":false,\"write\":true,\"read\":true,\"update\":true,\"delete\":true},\"displayName\":\"Malaria program\",\"user\":{\"id\":\"GOLswS44mh8\",\"code\":null,\"name\":\"Tom Wakiki\",\"displayName\":\"Tom Wakiki\",\"username\":\"system\"},\"id\":\"jvrEwEJ2yZn\"},{\"publicAccess\":\"r-------\",\"userGroupAccesses\":[],\"access\":{\"manage\":false,\"externalize\":false,\"write\":false,\"read\":true,\"update\":false,\"delete\":false},\"displayName\":\"Nairobi University Research Group\",\"user\":{\"id\":\"GOLswS44mh8\",\"code\":null,\"name\":\"Tom Wakiki\",\"displayName\":\"Tom Wakiki\",\"username\":\"system\"},\"id\":\"k3xzluFKVyw\"},{\"publicAccess\":\"r-------\",\"userGroupAccesses\":[],\"access\":{\"manage\":false,\"externalize\":false,\"write\":false,\"read\":true,\"update\":false,\"delete\":false},\"displayName\":\"Partner for Health International\",\"user\":{\"id\":\"GOLswS44mh8\",\"code\":null,\"name\":\"Tom Wakiki\",\"displayName\":\"Tom Wakiki\",\"username\":\"system\"},\"id\":\"GZSvMCVowAx\"},{\"publicAccess\":\"rw------\",\"userGroupAccesses\":[],\"access\":{\"manage\":true,\"externalize\":false,\"write\":true,\"read\":true,\"update\":true,\"delete\":true},\"displayName\":\"_PROGRAM_Antenatal care program\",\"user\":{\"id\":\"xE7jOejl9FI\",\"code\":null,\"name\":\"John Traore\",\"displayName\":\"John Traore\",\"username\":\"admin\"},\"id\":\"M1Qre0247G3\"},{\"publicAccess\":\"rw------\",\"userGroupAccesses\":[],\"access\":{\"manage\":true,\"externalize\":false,\"write\":true,\"read\":true,\"update\":true,\"delete\":true},\"displayName\":\"_PROGRAM_Child Health Tracker\",\"user\":{\"id\":\"GOLswS44mh8\",\"code\":null,\"name\":\"Tom Wakiki\",\"displayName\":\"Tom Wakiki\",\"username\":\"system\"},\"id\":\"H9XnHoWRKCg\"},{\"publicAccess\":\"rw------\",\"userGroupAccesses\":[],\"access\":{\"manage\":true,\"externalize\":false,\"write\":true,\"read\":true,\"update\":true,\"delete\":true},\"displayName\":\"_PROGRAM_Inpatient program\",\"user\":{\"id\":\"GOLswS44mh8\",\"code\":null,\"name\":\"Tom Wakiki\",\"displayName\":\"Tom Wakiki\",\"username\":\"system\"},\"id\":\"NTC8GjJ7p8P\"},{\"publicAccess\":\"rw------\",\"userGroupAccesses\":[],\"access\":{\"manage\":true,\"externalize\":false,\"write\":true,\"read\":true,\"update\":true,\"delete\":true},\"displayName\":\"_PROGRAM_MNCH / PNC (Adult Woman) program\",\"user\":{\"id\":\"xE7jOejl9FI\",\"code\":null,\"name\":\"John Traore\",\"displayName\":\"John Traore\",\"username\":\"admin\"},\"id\":\"vRoAruMnNpB\"},{\"publicAccess\":\"rw------\",\"userGroupAccesses\":[],\"access\":{\"manage\":true,\"externalize\":false,\"write\":true,\"read\":true,\"update\":true,\"delete\":true},\"displayName\":\"_PROGRAM_Superuser\",\"user\":{\"id\":\"GOLswS44mh8\",\"code\":null,\"name\":\"Tom Wakiki\",\"displayName\":\"Tom Wakiki\",\"username\":\"system\"},\"id\":\"gXpmQO6eEOo\"},{\"publicAccess\":\"rw------\",\"userGroupAccesses\":[],\"access\":{\"manage\":true,\"externalize\":false,\"write\":true,\"read\":true,\"update\":true,\"delete\":true},\"displayName\":\"_PROGRAM_System administrator (ALL)\",\"user\":{\"id\":\"GOLswS44mh8\",\"code\":null,\"name\":\"Tom Wakiki\",\"displayName\":\"Tom Wakiki\",\"username\":\"system\"},\"id\":\"pBnkuih0c1K\"},{\"publicAccess\":\"rw------\",\"userGroupAccesses\":[],\"access\":{\"manage\":true,\"externalize\":false,\"write\":true,\"read\":true,\"update\":true,\"delete\":true},\"displayName\":\"_PROGRAM_TB program\",\"user\":{\"id\":\"GOLswS44mh8\",\"code\":null,\"name\":\"Tom Wakiki\",\"displayName\":\"Tom Wakiki\",\"username\":\"system\"},\"id\":\"Kk12LkEWtXp\"},{\"publicAccess\":\"rw------\",\"userGroupAccesses\":[],\"access\":{\"manage\":true,\"externalize\":false,\"write\":true,\"read\":true,\"update\":true,\"delete\":true},\"displayName\":\"_PROGRAM_WHO MCH program\",\"user\":{\"id\":\"xE7jOejl9FI\",\"code\":null,\"name\":\"John Traore\",\"displayName\":\"John Traore\",\"username\":\"admin\"},\"id\":\"z1gNAf2zUxZ\"},{\"publicAccess\":\"rw------\",\"userGroupAccesses\":[],\"access\":{\"manage\":true,\"externalize\":false,\"write\":true,\"read\":true,\"update\":true,\"delete\":true},\"displayName\":\"System administrators\",\"user\":{\"id\":\"GOLswS44mh8\",\"code\":null,\"name\":\"Tom Wakiki\",\"displayName\":\"Tom Wakiki\",\"username\":\"system\"},\"id\":\"lFHP5lLkzVr\"},{\"publicAccess\":\"r-------\",\"userGroupAccesses\":[],\"access\":{\"manage\":false,\"externalize\":false,\"write\":false,\"read\":true,\"update\":false,\"delete\":false},\"displayName\":\"TB Program Coordinators\",\"user\":{\"id\":\"GOLswS44mh8\",\"code\":null,\"name\":\"Tom Wakiki\",\"displayName\":\"Tom Wakiki\",\"username\":\"system\"},\"id\":\"hj0nnsVsPLU\"},{\"publicAccess\":\"rw------\",\"userGroupAccesses\":[],\"access\":{\"manage\":true,\"externalize\":false,\"write\":true,\"read\":true,\"update\":true,\"delete\":true},\"displayName\":\"Wakiki\",\"user\":{\"id\":\"GOLswS44mh8\",\"code\":null,\"name\":\"Tom Wakiki\",\"displayName\":\"Tom Wakiki\",\"username\":\"system\"},\"id\":\"L4XTzgbdza3\"},{\"publicAccess\":\"r-------\",\"userGroupAccesses\":[],\"access\":{\"manage\":false,\"externalize\":false,\"write\":false,\"read\":true,\"update\":false,\"delete\":false},\"displayName\":\"World Health Program\",\"user\":{\"id\":\"GOLswS44mh8\",\"code\":null,\"name\":\"Tom Wakiki\",\"displayName\":\"Tom Wakiki\",\"username\":\"system\"},\"id\":\"Iqfwd3j2qe5\"}]}",
        "responseSize": 9961,
        "responseHeaders": {
            "server": "nginx/1.23.3",
            "content-type": "application/json;charset=UTF-8",
            "transfer-encoding": "chunked",
            "connection": "keep-alive",
            "access-control-allow-credentials": "true",
            "access-control-allow-origin": "http://localhost:3000",
            "vary": "Origin",
            "access-control-expose-headers": "ETag, Location",
            "cache-control": "no-cache, private",
            "x-content-type-options": "nosniff",
            "x-xss-protection": "1; mode=block"
        }
    },
    {
        "path": "/api/40/userGroups?fields=id,displayName,access,user%5Bid%2CdisplayName%5D,publicAccess,userGroupAccesses&order=name%3Aasc&page=1&pageSize=5",
        "featureName": "User groups can be listed",
        "static": false,
        "count": 1,
        "nonDeterministic": false,
        "method": "GET",
        "requestBody": "",
        "requestHeaders": {
            "host": "localhost:8080",
            "proxy-connection": "keep-alive",
            "accept": "application/json",
            "origin": "http://localhost:3000",
            "sec-fetch-site": "same-site",
            "sec-fetch-mode": "cors"
        },
        "statusCode": 200,
        "responseBody": "{\"pager\":{\"page\":1,\"total\":31,\"pageSize\":5,\"nextPage\":\"/40/userGroups?page=2&pageSize=5&fields=id%2CdisplayName%2Caccess%2Cuser%5Bid%2CdisplayName%5D%2CpublicAccess%2CuserGroupAccesses&order=name%3Aasc\",\"pageCount\":7},\"userGroups\":[{\"publicAccess\":\"rw------\",\"userGroupAccesses\":[],\"access\":{\"manage\":true,\"externalize\":false,\"write\":true,\"read\":true,\"update\":true,\"delete\":true},\"displayName\":\"Administrators\",\"user\":{\"id\":\"GOLswS44mh8\",\"code\":null,\"name\":\"Tom Wakiki\",\"displayName\":\"Tom Wakiki\",\"username\":\"system\"},\"id\":\"wl5cDMuUhmF\"},{\"publicAccess\":\"rw------\",\"userGroupAccesses\":[],\"access\":{\"manage\":true,\"externalize\":false,\"write\":true,\"read\":true,\"update\":true,\"delete\":true},\"displayName\":\"Africare HQ\",\"user\":{\"id\":\"GOLswS44mh8\",\"code\":null,\"name\":\"Tom Wakiki\",\"displayName\":\"Tom Wakiki\",\"username\":\"system\"},\"id\":\"vAvEltyXGbD\"},{\"publicAccess\":\"r-------\",\"userGroupAccesses\":[],\"access\":{\"manage\":false,\"externalize\":false,\"write\":false,\"read\":true,\"update\":false,\"delete\":false},\"displayName\":\"Bo District M&E officers\",\"user\":{\"id\":\"GOLswS44mh8\",\"code\":null,\"name\":\"Tom Wakiki\",\"displayName\":\"Tom Wakiki\",\"username\":\"system\"},\"id\":\"ZoHNWQajIoe\"},{\"publicAccess\":\"r-------\",\"userGroupAccesses\":[],\"access\":{\"manage\":false,\"externalize\":false,\"write\":false,\"read\":true,\"update\":false,\"delete\":false},\"displayName\":\"Bonthe District M&E Officers\",\"user\":{\"id\":\"GOLswS44mh8\",\"code\":null,\"name\":\"Tom Wakiki\",\"displayName\":\"Tom Wakiki\",\"username\":\"system\"},\"id\":\"th4S6ovwcr8\"},{\"publicAccess\":\"r-------\",\"userGroupAccesses\":[],\"access\":{\"manage\":false,\"externalize\":false,\"write\":false,\"read\":true,\"update\":false,\"delete\":false},\"displayName\":\"Cape Town University Research Group\",\"user\":{\"id\":\"GOLswS44mh8\",\"code\":null,\"name\":\"Tom Wakiki\",\"displayName\":\"Tom Wakiki\",\"username\":\"system\"},\"id\":\"wAAA1agEHin\"}]}",
        "responseSize": 1842,
        "responseHeaders": {
            "server": "nginx/1.23.3",
            "content-type": "application/json;charset=UTF-8",
            "transfer-encoding": "chunked",
            "connection": "keep-alive",
            "access-control-allow-credentials": "true",
            "access-control-allow-origin": "http://localhost:3000",
            "vary": "Origin",
            "access-control-expose-headers": "ETag, Location",
            "cache-control": "no-cache, private",
            "x-content-type-options": "nosniff",
            "x-xss-protection": "1; mode=block"
        }
    },
    {
        "path": "/api/40/userGroups?fields=id,displayName,access,user%5Bid%2CdisplayName%5D,publicAccess,userGroupAccesses&order=name%3Aasc&page=2&pageSize=5",
        "featureName": "User groups can be listed",
        "static": false,
        "count": 1,
        "nonDeterministic": false,
        "method": "GET",
        "requestBody": "",
        "requestHeaders": {
            "host": "localhost:8080",
            "proxy-connection": "keep-alive",
            "accept": "application/json",
            "origin": "http://localhost:3000",
            "sec-fetch-site": "same-site",
            "sec-fetch-mode": "cors"
        },
        "statusCode": 200,
        "responseBody": "{\"pager\":{\"page\":2,\"total\":31,\"pageSize\":5,\"nextPage\":\"/40/userGroups?page=3&pageSize=5&fields=id%2CdisplayName%2Caccess%2Cuser%5Bid%2CdisplayName%5D%2CpublicAccess%2CuserGroupAccesses&order=name%3Aasc\",\"prevPage\":\"/40/userGroups?pageSize=5&fields=id%2CdisplayName%2Caccess%2Cuser%5Bid%2CdisplayName%5D%2CpublicAccess%2CuserGroupAccesses&order=name%3Aasc\",\"pageCount\":7},\"userGroups\":[{\"publicAccess\":\"rw------\",\"userGroupAccesses\":[],\"access\":{\"manage\":true,\"externalize\":false,\"write\":true,\"read\":true,\"update\":true,\"delete\":true},\"displayName\":\"_DATASET_Child Health Program Manager\",\"user\":{\"id\":\"GOLswS44mh8\",\"code\":null,\"name\":\"Tom Wakiki\",\"displayName\":\"Tom Wakiki\",\"username\":\"system\"},\"id\":\"GogLpGmkL0g\"},{\"publicAccess\":\"rw------\",\"userGroupAccesses\":[],\"access\":{\"manage\":true,\"externalize\":false,\"write\":true,\"read\":true,\"update\":true,\"delete\":true},\"displayName\":\"_DATASET_Data entry clerk\",\"user\":{\"id\":\"xE7jOejl9FI\",\"code\":null,\"name\":\"John Traore\",\"displayName\":\"John Traore\",\"username\":\"admin\"},\"id\":\"tH0GcNZZ1vW\"},{\"publicAccess\":\"rw------\",\"userGroupAccesses\":[],\"access\":{\"manage\":true,\"externalize\":false,\"write\":true,\"read\":true,\"update\":true,\"delete\":true},\"displayName\":\"_DATASET_M and E Officer\",\"user\":{\"id\":\"GOLswS44mh8\",\"code\":null,\"name\":\"Tom Wakiki\",\"displayName\":\"Tom Wakiki\",\"username\":\"system\"},\"id\":\"w900PX10L7O\"},{\"publicAccess\":\"rw------\",\"userGroupAccesses\":[],\"access\":{\"manage\":true,\"externalize\":false,\"write\":true,\"read\":true,\"update\":true,\"delete\":true},\"displayName\":\"_DATASET_Superuser\",\"user\":{\"id\":\"GOLswS44mh8\",\"code\":null,\"name\":\"Tom Wakiki\",\"displayName\":\"Tom Wakiki\",\"username\":\"system\"},\"id\":\"B6JNeAQ6akX\"},{\"publicAccess\":\"rw------\",\"userGroupAccesses\":[],\"access\":{\"manage\":true,\"externalize\":false,\"write\":true,\"read\":true,\"update\":true,\"delete\":true},\"displayName\":\"_DATASET_System administrator (ALL)\",\"user\":{\"id\":\"GOLswS44mh8\",\"code\":null,\"name\":\"Tom Wakiki\",\"displayName\":\"Tom Wakiki\",\"username\":\"system\"},\"id\":\"zz6XckBrLlj\"}]}",
        "responseSize": 2036,
        "responseHeaders": {
            "server": "nginx/1.23.3",
            "content-type": "application/json;charset=UTF-8",
            "transfer-encoding": "chunked",
            "connection": "keep-alive",
            "access-control-allow-credentials": "true",
            "access-control-allow-origin": "http://localhost:3000",
            "vary": "Origin",
            "access-control-expose-headers": "ETag, Location",
            "cache-control": "no-cache, private",
            "x-content-type-options": "nosniff",
            "x-xss-protection": "1; mode=block"
        }
    }
]