[
    {
        "path": "/api/40/systemSettings/helpPageLink",
        "featureName": "Users can be listed",
        "static": false,
        "count": 2,
        "nonDeterministic": false,
        "method": "GET",
        "requestBody": "",
        "requestHeaders": {
            "host": "localhost:8080",
            "proxy-connection": "keep-alive",
            "accept": "application/json",
            "origin": "http://localhost:3000",
            "sec-fetch-site": "same-site",
            "sec-fetch-mode": "cors"
        },
        "statusCode": 200,
        "responseBody": "{\"helpPageLink\":\"https://dhis2.github.io/dhis2-docs/master/en/user/html/dhis2_user_manual_en.html\"}",
        "responseSize": 99,
        "responseHeaders": {
            "server": "nginx/1.21.6",
            "content-type": "application/json;charset=UTF-8",
            "transfer-encoding": "chunked",
            "connection": "keep-alive",
            "access-control-allow-credentials": "true",
            "access-control-allow-origin": "http://localhost:3000",
            "vary": "Origin",
            "access-control-expose-headers": "ETag, Location",
            "cache-control": "no-cache, private",
            "x-content-type-options": "nosniff",
            "x-xss-protection": "1; mode=block",
            "x-frame-options": "SAMEORIGIN"
        }
    },
    {
        "path": "/api/40/organisationUnits?paging=false&level=1&fields=id%2Cpath%2CdisplayName%2Cchildren%3A%3AisNotEmpty",
        "featureName": "Users can be listed",
        "static": false,
        "count": 2,
        "nonDeterministic": false,
        "method": "GET",
        "requestBody": "",
        "requestHeaders": {
            "host": "localhost:8080",
            "proxy-connection": "keep-alive",
            "accept": "application/json",
            "origin": "http://localhost:3000",
            "sec-fetch-site": "same-site",
            "sec-fetch-mode": "cors"
        },
        "statusCode": 200,
        "responseBody": "{\"organisationUnits\":[{\"children\":true,\"path\":\"/ImspTQPwCqd\",\"displayName\":\"Sierra Leone\",\"id\":\"ImspTQPwCqd\"}]}",
        "responseSize": 111,
        "responseHeaders": {
            "server": "nginx/1.21.6",
            "content-type": "application/json;charset=UTF-8",
            "transfer-encoding": "chunked",
            "connection": "keep-alive",
            "access-control-allow-credentials": "true",
            "access-control-allow-origin": "http://localhost:3000",
            "vary": "Origin",
            "access-control-expose-headers": "ETag, Location",
            "cache-control": "no-cache, private",
            "x-content-type-options": "nosniff",
            "x-xss-protection": "1; mode=block",
            "x-frame-options": "SAMEORIGIN"
        }
    },
    {
        "path": "/api/40/users?fields=id,displayName,access,email,userCredentials%5Busername%2Cdisabled%2ClastLogin%2CtwoFA%5D,teiSearchOrganisationUnits%5Bid%2Cpath%5D&order=firstName%3Aasc,surname%3Aasc&userOrgUnits=true&includeChildren=true&page=1&pageSize=50&query=&selfRegistered=false",
        "featureName": "Users can be listed",
        "static": false,
        "count": 1,
        "nonDeterministic": false,
        "method": "GET",
        "requestBody": "",
        "requestHeaders": {
            "host": "localhost:8080",
            "proxy-connection": "keep-alive",
            "accept": "application/json",
            "origin": "http://localhost:3000",
            "sec-fetch-site": "same-site",
            "sec-fetch-mode": "cors"
        },
        "statusCode": 200,
        "responseBody": "{\"pager\":{\"page\":1,\"total\":130,\"pageSize\":50,\"nextPage\":\"/40/users?page=2&userOrgUnits=true&includeChildren=true&query=&fields=id%2CdisplayName%2Caccess%2Cemail%2CuserCredentials%5Busername%2Cdisabled%2ClastLogin%2CtwoFA%5D%2CteiSearchOrganisationUnits%5Bid%2Cpath%5D&order=firstName%3Aasc%2Csurname%3Aasc&selfRegistered=false\",\"pageCount\":3},\"users\":[{\"access\":{\"manage\":true,\"externalize\":false,\"write\":true,\"read\":true,\"update\":true,\"delete\":true},\"teiSearchOrganisationUnits\":[],\"userCredentials\":{\"username\":\"traore\",\"twoFA\":false,\"lastLogin\":\"2013-12-30T17:16:43.235\",\"disabled\":false},\"displayName\":\"Alain Traore\",\"id\":\"oXD88WWSQpR\"},{\"access\":{\"manage\":true,\"externalize\":false,\"write\":true,\"read\":true,\"update\":true,\"delete\":true},\"email\":\"dummy@dhis2.org\",\"teiSearchOrganisationUnits\":[],\"userCredentials\":{\"twoFA\":false,\"disabled\":true},\"displayName\":\"Ali Nana\",\"id\":\"gEnZri18JsV\"},{\"access\":{\"manage\":true,\"externalize\":false,\"write\":true,\"read\":true,\"update\":true,\"delete\":true},\"teiSearchOrganisationUnits\":[],\"userCredentials\":{\"username\":\"arabicB\",\"twoFA\":false,\"disabled\":false},\"displayName\":\"Arabic Bombali\",\"id\":\"Rq9TNYOyS6a\"},{\"access\":{\"manage\":true,\"externalize\":false,\"write\":true,\"read\":true,\"update\":true,\"delete\":true},\"teiSearchOrganisationUnits\":[],\"userCredentials\":{\"username\":\"arabicS\",\"twoFA\":false,\"disabled\":false},\"displayName\":\"Arabic Super\",\"id\":\"OSWYhAwJqiC\"},{\"access\":{\"manage\":true,\"externalize\":false,\"write\":true,\"read\":true,\"update\":true,\"delete\":true},\"teiSearchOrganisationUnits\":[],\"userCredentials\":{\"username\":\"arabic\",\"twoFA\":false,\"disabled\":false},\"displayName\":\"Arabic UAE\",\"id\":\"OF1mSOFpygN\"},{\"access\":{\"manage\":true,\"externalize\":false,\"write\":true,\"read\":true,\"update\":true,\"delete\":true},\"teiSearchOrganisationUnits\":[],\"userCredentials\":{\"username\":\"arabiceB\",\"twoFA\":false,\"disabled\":false},\"displayName\":\"ArabicE Bombali\",\"id\":\"IC1o0DI2iWu\"},{\"access\":{\"manage\":true,\"externalize\":false,\"write\":true,\"read\":true,\"update\":true,\"delete\":true},\"teiSearchOrganisationUnits\":[],\"userCredentials\":{\"username\":\"arabice\",\"twoFA\":false,\"disabled\":false},\"displayName\":\"ArabicE Egypt\",\"id\":\"FVsLhslRbTK\"},{\"access\":{\"manage\":true,\"externalize\":false,\"write\":true,\"read\":true,\"update\":true,\"delete\":true},\"teiSearchOrganisationUnits\":[],\"userCredentials\":{\"username\":\"arabiceS\",\"twoFA\":false,\"disabled\":false},\"displayName\":\"ArabicE Super\",\"id\":\"akw4ilMLc24\"},{\"access\":{\"manage\":true,\"externalize\":false,\"write\":true,\"read\":true,\"update\":true,\"delete\":true},\"teiSearchOrganisationUnits\":[],\"userCredentials\":{\"username\":\"arabiciB\",\"twoFA\":false,\"disabled\":false},\"displayName\":\"ArabicI Bombali\",\"id\":\"G2ysGXpcZWr\"},{\"access\":{\"manage\":true,\"externalize\":false,\"write\":true,\"read\":true,\"update\":true,\"delete\":true},\"teiSearchOrganisationUnits\":[],\"userCredentials\":{\"username\":\"arabici\",\"twoFA\":false,\"disabled\":false},\"displayName\":\"ArabicI Iraq\",\"id\":\"NG6JReWSInT\"},{\"access\":{\"manage\":true,\"externalize\":false,\"write\":true,\"read\":true,\"update\":true,\"delete\":true},\"teiSearchOrganisationUnits\":[],\"userCredentials\":{\"username\":\"arabiciS\",\"twoFA\":false,\"disabled\":false},\"displayName\":\"ArabicI Super\",\"id\":\"iswBgC3ROmB\"},{\"access\":{\"manage\":true,\"externalize\":false,\"write\":true,\"read\":true,\"update\":true,\"delete\":true},\"teiSearchOrganisationUnits\":[],\"userCredentials\":{\"username\":\"arabicsB\",\"twoFA\":false,\"disabled\":false},\"displayName\":\"ArabicS Bombali\",\"id\":\"EGwENMFCpbm\"},{\"access\":{\"manage\":true,\"externalize\":false,\"write\":true,\"read\":true,\"update\":true,\"delete\":true},\"teiSearchOrganisationUnits\":[],\"userCredentials\":{\"username\":\"arabics\",\"twoFA\":false,\"disabled\":false},\"displayName\":\"ArabicS Sudan\",\"id\":\"DdfFqqZkBhd\"},{\"access\":{\"manage\":true,\"externalize\":false,\"write\":true,\"read\":true,\"update\":true,\"delete\":true},\"teiSearchOrganisationUnits\":[],\"userCredentials\":{\"username\":\"arabicsS\",\"twoFA\":false,\"disabled\":false},\"displayName\":\"ArabicS Super\",\"id\":\"EyUuSlSe50U\"},{\"access\":{\"manage\":true,\"externalize\":false,\"write\":true,\"read\":true,\"update\":true,\"delete\":true},\"teiSearchOrganisationUnits\":[],\"userCredentials\":{\"username\":\"bengali\",\"twoFA\":false,\"disabled\":false},\"displayName\":\"Bengali Bangladesh\",\"id\":\"wQ1F32Aa9Ug\"},{\"access\":{\"manage\":true,\"externalize\":false,\"write\":true,\"read\":true,\"update\":true,\"delete\":true},\"teiSearchOrganisationUnits\":[],\"userCredentials\":{\"username\":\"bengaliB\",\"twoFA\":false,\"disabled\":false},\"displayName\":\"Bengali Bombali\",\"id\":\"nFNQNgrbTED\"},{\"access\":{\"manage\":true,\"externalize\":false,\"write\":true,\"read\":true,\"update\":true,\"delete\":true},\"teiSearchOrganisationUnits\":[],\"userCredentials\":{\"username\":\"bengaliS\",\"twoFA\":false,\"disabled\":false},\"displayName\":\"Bengali Super\",\"id\":\"wQTgefEcyTG\"},{\"access\":{\"manage\":true,\"externalize\":false,\"write\":true,\"read\":true,\"update\":true,\"delete\":true},\"teiSearchOrganisationUnits\":[],\"userCredentials\":{\"username\":\"bislamaB\",\"twoFA\":false,\"disabled\":false},\"displayName\":\"Bislama Bombali\",\"id\":\"DLjZWMsVsq2\"},{\"access\":{\"manage\":true,\"externalize\":false,\"write\":true,\"read\":true,\"update\":true,\"delete\":true},\"teiSearchOrganisationUnits\":[],\"userCredentials\":{\"username\":\"bislamaS\",\"twoFA\":false,\"disabled\":false},\"displayName\":\"Bislama Super\",\"id\":\"C6fqFRbKe6r\"},{\"access\":{\"manage\":true,\"externalize\":false,\"write\":true,\"read\":true,\"update\":true,\"delete\":true},\"teiSearchOrganisationUnits\":[],\"userCredentials\":{\"username\":\"bislama\",\"twoFA\":false,\"disabled\":false},\"displayName\":\"Bislama Vanuatu\",\"id\":\"JyMUTHHxh3B\"},{\"access\":{\"manage\":true,\"externalize\":false,\"write\":true,\"read\":true,\"update\":true,\"delete\":true},\"teiSearchOrganisationUnits\":[],\"userCredentials\":{\"username\":\"bombali\",\"twoFA\":false,\"lastLogin\":\"2014-09-28T23:19:34.514\",\"disabled\":false},\"displayName\":\"Bombali District\",\"id\":\"NOOF56dveaZ\"},{\"access\":{\"manage\":true,\"externalize\":false,\"write\":true,\"read\":true,\"update\":true,\"delete\":true},\"teiSearchOrganisationUnits\":[],\"userCredentials\":{\"username\":\"burmeseB\",\"twoFA\":false,\"disabled\":false},\"displayName\":\"Burmese Bombali\",\"id\":\"WYDN4b4yRlg\"},{\"access\":{\"manage\":true,\"externalize\":false,\"write\":true,\"read\":true,\"update\":true,\"delete\":true},\"teiSearchOrganisationUnits\":[],\"userCredentials\":{\"username\":\"burmese\",\"twoFA\":false,\"disabled\":false},\"displayName\":\"Burmese Myanmar\",\"id\":\"T4AwvxjfaFy\"},{\"access\":{\"manage\":true,\"externalize\":false,\"write\":true,\"read\":true,\"update\":true,\"delete\":true},\"teiSearchOrganisationUnits\":[],\"userCredentials\":{\"username\":\"burmeseS\",\"twoFA\":false,\"disabled\":false},\"displayName\":\"Burmese Super\",\"id\":\"rIouAxmW0vD\"},{\"access\":{\"manage\":true,\"externalize\":false,\"write\":true,\"read\":true,\"update\":true,\"delete\":true},\"teiSearchOrganisationUnits\":[],\"userCredentials\":{\"username\":\"chinese\",\"twoFA\":false,\"disabled\":false},\"displayName\":\"Chinese Asia\",\"id\":\"yarlPr6DsOF\"},{\"access\":{\"manage\":true,\"externalize\":false,\"write\":true,\"read\":true,\"update\":true,\"delete\":true},\"teiSearchOrganisationUnits\":[],\"userCredentials\":{\"username\":\"chineseB\",\"twoFA\":false,\"disabled\":false},\"displayName\":\"Chinese Bombali\",\"id\":\"rH2032EPFvr\"},{\"access\":{\"manage\":true,\"externalize\":false,\"write\":true,\"read\":true,\"update\":true,\"delete\":true},\"teiSearchOrganisationUnits\":[],\"userCredentials\":{\"username\":\"chineseS\",\"twoFA\":false,\"disabled\":false},\"displayName\":\"Chinese Super\",\"id\":\"ITrQQlJqbaE\"},{\"access\":{\"manage\":true,\"externalize\":false,\"write\":true,\"read\":true,\"update\":true,\"delete\":true},\"teiSearchOrganisationUnits\":[],\"userCredentials\":{\"username\":\"chinesecB\",\"twoFA\":false,\"disabled\":false},\"displayName\":\"ChineseC Bombali\",\"id\":\"SpuKahMLsAr\"},{\"access\":{\"manage\":true,\"externalize\":false,\"write\":true,\"read\":true,\"update\":true,\"delete\":true},\"teiSearchOrganisationUnits\":[],\"userCredentials\":{\"username\":\"chinesec\",\"twoFA\":false,\"disabled\":false},\"displayName\":\"ChineseC China\",\"id\":\"t6ijJxbHBCa\"},{\"access\":{\"manage\":true,\"externalize\":false,\"write\":true,\"read\":true,\"update\":true,\"delete\":true},\"teiSearchOrganisationUnits\":[],\"userCredentials\":{\"username\":\"chinesecS\",\"twoFA\":false,\"disabled\":false},\"displayName\":\"ChineseC Super\",\"id\":\"xbAzaTwEGx0\"},{\"access\":{\"manage\":true,\"externalize\":false,\"write\":true,\"read\":true,\"update\":true,\"delete\":true},\"teiSearchOrganisationUnits\":[],\"userCredentials\":{\"username\":\"danishB\",\"twoFA\":false,\"disabled\":false},\"displayName\":\"Danish Bombali\",\"id\":\"ga5Y0Wg5kof\"},{\"access\":{\"manage\":true,\"externalize\":false,\"write\":true,\"read\":true,\"update\":true,\"delete\":true},\"teiSearchOrganisationUnits\":[],\"userCredentials\":{\"username\":\"danish\",\"twoFA\":false,\"disabled\":false},\"displayName\":\"Danish Denmark\",\"id\":\"wqFivBzTq3r\"},{\"access\":{\"manage\":true,\"externalize\":false,\"write\":true,\"read\":true,\"update\":true,\"delete\":true},\"teiSearchOrganisationUnits\":[],\"userCredentials\":{\"username\":\"danishS\",\"twoFA\":false,\"disabled\":false},\"displayName\":\"Danish Super\",\"id\":\"oEtWWgCGUif\"},{\"access\":{\"manage\":true,\"externalize\":false,\"write\":true,\"read\":true,\"update\":true,\"delete\":true},\"teiSearchOrganisationUnits\":[],\"userCredentials\":{\"username\":\"konan\",\"twoFA\":false,\"lastLogin\":\"2019-04-29T16:13:04.047\",\"disabled\":false},\"displayName\":\"Didier Konan\",\"id\":\"I9fMsY4pRKk\"},{\"access\":{\"manage\":true,\"externalize\":false,\"write\":true,\"read\":true,\"update\":true,\"delete\":true},\"teiSearchOrganisationUnits\":[],\"userCredentials\":{\"username\":\"donor\",\"twoFA\":false,\"lastLogin\":\"2014-04-08T21:27:06.659\",\"disabled\":false},\"displayName\":\"Donor User\",\"id\":\"cddnwKV2gm9\"},{\"access\":{\"manage\":true,\"externalize\":false,\"write\":true,\"read\":true,\"update\":true,\"delete\":true},\"teiSearchOrganisationUnits\":[],\"userCredentials\":{\"username\":\"englishB\",\"twoFA\":false,\"disabled\":false},\"displayName\":\"English Bombali\",\"id\":\"FfQ2460chiA\"},{\"access\":{\"manage\":true,\"externalize\":false,\"write\":true,\"read\":true,\"update\":true,\"delete\":true},\"teiSearchOrganisationUnits\":[],\"userCredentials\":{\"username\":\"englishS\",\"twoFA\":false,\"disabled\":false},\"displayName\":\"English Super\",\"id\":\"vgSpvvWCbxI\"},{\"access\":{\"manage\":true,\"externalize\":false,\"write\":true,\"read\":true,\"update\":true,\"delete\":true},\"teiSearchOrganisationUnits\":[],\"userCredentials\":{\"username\":\"english\",\"twoFA\":false,\"disabled\":false},\"displayName\":\"English US/UK\",\"id\":\"tQSUE8azWFG\"},{\"access\":{\"manage\":true,\"externalize\":false,\"write\":true,\"read\":true,\"update\":true,\"delete\":true},\"teiSearchOrganisationUnits\":[],\"userCredentials\":{\"username\":\"frenchB\",\"twoFA\":false,\"disabled\":false},\"displayName\":\"French Bombali\",\"id\":\"L2B791gfbds\"},{\"access\":{\"manage\":true,\"externalize\":false,\"write\":true,\"read\":true,\"update\":true,\"delete\":true},\"teiSearchOrganisationUnits\":[],\"userCredentials\":{\"username\":\"french\",\"twoFA\":false,\"disabled\":false},\"displayName\":\"French France\",\"id\":\"OhBMBATrkP7\"},{\"access\":{\"manage\":true,\"externalize\":false,\"write\":true,\"read\":true,\"update\":true,\"delete\":true},\"teiSearchOrganisationUnits\":[],\"userCredentials\":{\"username\":\"frenchS\",\"twoFA\":false,\"disabled\":false},\"displayName\":\"French Super\",\"id\":\"ImbBYJHZrAW\"},{\"access\":{\"manage\":true,\"externalize\":false,\"write\":true,\"read\":true,\"update\":true,\"delete\":true},\"teiSearchOrganisationUnits\":[],\"userCredentials\":{\"username\":\"analyticstest\",\"twoFA\":false,\"lastLogin\":\"2021-04-16T10:29:30.967\",\"disabled\":false},\"displayName\":\"Freya Njordsdottir\",\"id\":\"tiJZaFA1tXp\"},{\"access\":{\"manage\":true,\"externalize\":false,\"write\":true,\"read\":true,\"update\":true,\"delete\":true},\"teiSearchOrganisationUnits\":[],\"userCredentials\":{\"username\":\"geetha\",\"twoFA\":false,\"disabled\":false},\"displayName\":\"Geetha Alwan\",\"id\":\"IAzIZweJnhm\"},{\"access\":{\"manage\":true,\"externalize\":false,\"write\":true,\"read\":true,\"update\":true,\"delete\":true},\"teiSearchOrganisationUnits\":[],\"userCredentials\":{\"username\":\"geethaS\",\"twoFA\":false,\"disabled\":false},\"displayName\":\"Geetha Super\",\"id\":\"qObaDc0JE3y\"},{\"access\":{\"manage\":true,\"externalize\":false,\"write\":true,\"read\":true,\"update\":true,\"delete\":true},\"teiSearchOrganisationUnits\":[],\"userCredentials\":{\"username\":\"gintareS\",\"twoFA\":false,\"disabled\":false},\"displayName\":\"Gintare Super\",\"id\":\"IriFPYe2sGG\"},{\"access\":{\"manage\":true,\"externalize\":false,\"write\":true,\"read\":true,\"update\":true,\"delete\":true},\"teiSearchOrganisationUnits\":[],\"userCredentials\":{\"username\":\"gintare\",\"twoFA\":false,\"disabled\":false},\"displayName\":\"Gintare Vilkelyte\",\"id\":\"k0pJIVKAJz3\"},{\"access\":{\"manage\":true,\"externalize\":false,\"write\":true,\"read\":true,\"update\":true,\"delete\":true},\"teiSearchOrganisationUnits\":[],\"userCredentials\":{\"username\":\"guest\",\"twoFA\":false,\"lastLogin\":\"2014-10-07T22:17:43.434\",\"disabled\":false},\"displayName\":\"Guest User\",\"id\":\"rWLrZL8rP3K\"},{\"access\":{\"manage\":true,\"externalize\":false,\"write\":true,\"read\":true,\"update\":true,\"delete\":true},\"teiSearchOrganisationUnits\":[],\"userCredentials\":{\"username\":\"haroonS\",\"twoFA\":false,\"disabled\":false},\"displayName\":\"Haroon Super\",\"id\":\"hP0k45PbWah\"},{\"access\":{\"manage\":true,\"externalize\":false,\"write\":true,\"read\":true,\"update\":true,\"delete\":true},\"teiSearchOrganisationUnits\":[],\"userCredentials\":{\"username\":\"haroon\",\"twoFA\":false,\"lastLogin\":\"2021-03-18T11:58:09.851\",\"disabled\":false},\"displayName\":\"Haroon Twalibu\",\"id\":\"Mw9e2OWvRKr\"},{\"access\":{\"manage\":true,\"externalize\":false,\"write\":true,\"read\":true,\"update\":true,\"delete\":true},\"teiSearchOrganisationUnits\":[],\"userCredentials\":{\"username\":\"hella\",\"twoFA\":false,\"disabled\":false},\"displayName\":\"Hella Dawit\",\"id\":\"sVahVulbH6q\"}]}",
        "responseSize": 13333,
        "responseHeaders": {
            "server": "nginx/1.21.6",
            "content-type": "application/json;charset=UTF-8",
            "transfer-encoding": "chunked",
            "connection": "keep-alive",
            "access-control-allow-credentials": "true",
            "access-control-allow-origin": "http://localhost:3000",
            "vary": "Origin",
            "access-control-expose-headers": "ETag, Location",
            "cache-control": "no-cache, private",
            "x-content-type-options": "nosniff",
            "x-xss-protection": "1; mode=block",
            "x-frame-options": "SAMEORIGIN"
        }
    },
    {
        "path": "/api/40/users?fields=id,displayName,access,email,userCredentials%5Busername%2Cdisabled%2ClastLogin%2CtwoFA%5D,teiSearchOrganisationUnits%5Bid%2Cpath%5D&order=firstName%3Aasc,surname%3Aasc&userOrgUnits=true&includeChildren=true&page=1&pageSize=5&query=&selfRegistered=false",
        "featureName": "Users can be listed",
        "static": false,
        "count": 1,
        "nonDeterministic": false,
        "method": "GET",
        "requestBody": "",
        "requestHeaders": {
            "host": "localhost:8080",
            "proxy-connection": "keep-alive",
            "accept": "application/json",
            "origin": "http://localhost:3000",
            "sec-fetch-site": "same-site",
            "sec-fetch-mode": "cors"
        },
        "statusCode": 200,
        "responseBody": "{\"pager\":{\"page\":1,\"total\":130,\"pageSize\":5,\"nextPage\":\"/40/users?page=2&pageSize=5&userOrgUnits=true&includeChildren=true&query=&fields=id%2CdisplayName%2Caccess%2Cemail%2CuserCredentials%5Busername%2Cdisabled%2ClastLogin%2CtwoFA%5D%2CteiSearchOrganisationUnits%5Bid%2Cpath%5D&order=firstName%3Aasc%2Csurname%3Aasc&selfRegistered=false\",\"pageCount\":26},\"users\":[{\"access\":{\"manage\":true,\"externalize\":false,\"write\":true,\"read\":true,\"update\":true,\"delete\":true},\"teiSearchOrganisationUnits\":[],\"userCredentials\":{\"username\":\"traore\",\"twoFA\":false,\"lastLogin\":\"2013-12-30T17:16:43.235\",\"disabled\":false},\"displayName\":\"Alain Traore\",\"id\":\"oXD88WWSQpR\"},{\"access\":{\"manage\":true,\"externalize\":false,\"write\":true,\"read\":true,\"update\":true,\"delete\":true},\"email\":\"dummy@dhis2.org\",\"teiSearchOrganisationUnits\":[],\"userCredentials\":{\"twoFA\":false,\"disabled\":true},\"displayName\":\"Ali Nana\",\"id\":\"gEnZri18JsV\"},{\"access\":{\"manage\":true,\"externalize\":false,\"write\":true,\"read\":true,\"update\":true,\"delete\":true},\"teiSearchOrganisationUnits\":[],\"userCredentials\":{\"username\":\"arabicB\",\"twoFA\":false,\"disabled\":false},\"displayName\":\"Arabic Bombali\",\"id\":\"Rq9TNYOyS6a\"},{\"access\":{\"manage\":true,\"externalize\":false,\"write\":true,\"read\":true,\"update\":true,\"delete\":true},\"teiSearchOrganisationUnits\":[],\"userCredentials\":{\"username\":\"arabicS\",\"twoFA\":false,\"disabled\":false},\"displayName\":\"Arabic Super\",\"id\":\"OSWYhAwJqiC\"},{\"access\":{\"manage\":true,\"externalize\":false,\"write\":true,\"read\":true,\"update\":true,\"delete\":true},\"teiSearchOrganisationUnits\":[],\"userCredentials\":{\"username\":\"arabic\",\"twoFA\":false,\"disabled\":false},\"displayName\":\"Arabic UAE\",\"id\":\"OF1mSOFpygN\"}]}",
        "responseSize": 1685,
        "responseHeaders": {
            "server": "nginx/1.21.6",
            "content-type": "application/json;charset=UTF-8",
            "transfer-encoding": "chunked",
            "connection": "keep-alive",
            "access-control-allow-credentials": "true",
            "access-control-allow-origin": "http://localhost:3000",
            "vary": "Origin",
            "access-control-expose-headers": "ETag, Location",
            "cache-control": "no-cache, private",
            "x-content-type-options": "nosniff",
            "x-xss-protection": "1; mode=block",
            "x-frame-options": "SAMEORIGIN"
        }
    },
    {
        "path": "/api/40/users?fields=id,displayName,access,email,userCredentials%5Busername%2Cdisabled%2ClastLogin%2CtwoFA%5D,teiSearchOrganisationUnits%5Bid%2Cpath%5D&order=firstName%3Aasc,surname%3Aasc&userOrgUnits=true&includeChildren=true&page=2&pageSize=5&query=&selfRegistered=false",
        "featureName": "Users can be listed",
        "static": false,
        "count": 1,
        "nonDeterministic": false,
        "method": "GET",
        "requestBody": "",
        "requestHeaders": {
            "host": "localhost:8080",
            "proxy-connection": "keep-alive",
            "accept": "application/json",
            "origin": "http://localhost:3000",
            "sec-fetch-site": "same-site",
            "sec-fetch-mode": "cors"
        },
        "statusCode": 200,
        "responseBody": "{\"pager\":{\"page\":2,\"total\":130,\"pageSize\":5,\"nextPage\":\"/40/users?page=3&pageSize=5&userOrgUnits=true&includeChildren=true&query=&fields=id%2CdisplayName%2Caccess%2Cemail%2CuserCredentials%5Busername%2Cdisabled%2ClastLogin%2CtwoFA%5D%2CteiSearchOrganisationUnits%5Bid%2Cpath%5D&order=firstName%3Aasc%2Csurname%3Aasc&selfRegistered=false\",\"prevPage\":\"/40/users?pageSize=5&userOrgUnits=true&includeChildren=true&query=&fields=id%2CdisplayName%2Caccess%2Cemail%2CuserCredentials%5Busername%2Cdisabled%2ClastLogin%2CtwoFA%5D%2CteiSearchOrganisationUnits%5Bid%2Cpath%5D&order=firstName%3Aasc%2Csurname%3Aasc&selfRegistered=false\",\"pageCount\":26},\"users\":[{\"access\":{\"manage\":true,\"externalize\":false,\"write\":true,\"read\":true,\"update\":true,\"delete\":true},\"teiSearchOrganisationUnits\":[],\"userCredentials\":{\"username\":\"arabiceB\",\"twoFA\":false,\"disabled\":false},\"displayName\":\"ArabicE Bombali\",\"id\":\"IC1o0DI2iWu\"},{\"access\":{\"manage\":true,\"externalize\":false,\"write\":true,\"read\":true,\"update\":true,\"delete\":true},\"teiSearchOrganisationUnits\":[],\"userCredentials\":{\"username\":\"arabice\",\"twoFA\":false,\"disabled\":false},\"displayName\":\"ArabicE Egypt\",\"id\":\"FVsLhslRbTK\"},{\"access\":{\"manage\":true,\"externalize\":false,\"write\":true,\"read\":true,\"update\":true,\"delete\":true},\"teiSearchOrganisationUnits\":[],\"userCredentials\":{\"username\":\"arabiceS\",\"twoFA\":false,\"disabled\":false},\"displayName\":\"ArabicE Super\",\"id\":\"akw4ilMLc24\"},{\"access\":{\"manage\":true,\"externalize\":false,\"write\":true,\"read\":true,\"update\":true,\"delete\":true},\"teiSearchOrganisationUnits\":[],\"userCredentials\":{\"username\":\"arabiciB\",\"twoFA\":false,\"disabled\":false},\"displayName\":\"ArabicI Bombali\",\"id\":\"G2ysGXpcZWr\"},{\"access\":{\"manage\":true,\"externalize\":false,\"write\":true,\"read\":true,\"update\":true,\"delete\":true},\"teiSearchOrganisationUnits\":[],\"userCredentials\":{\"username\":\"arabici\",\"twoFA\":false,\"disabled\":false},\"displayName\":\"ArabicI Iraq\",\"id\":\"NG6JReWSInT\"}]}",
        "responseSize": 1972,
        "responseHeaders": {
            "server": "nginx/1.21.6",
            "content-type": "application/json;charset=UTF-8",
            "transfer-encoding": "chunked",
            "connection": "keep-alive",
            "access-control-allow-credentials": "true",
            "access-control-allow-origin": "http://localhost:3000",
            "vary": "Origin",
            "access-control-expose-headers": "ETag, Location",
            "cache-control": "no-cache, private",
            "x-content-type-options": "nosniff",
            "x-xss-protection": "1; mode=block",
            "x-frame-options": "SAMEORIGIN"
        }
    }
]